<sdf version='1.6'>
  <world name='default'>

    <light name='sun' type='directional'>
      <cast_shadows>1</cast_shadows>
      <pose frame=''>0 0 10 0 -0 0</pose>
      <diffuse>0.8 0.8 0.8 1</diffuse>
      <specular>0.1 0.1 0.1 1</specular>
      <attenuation>
        <range>1000</range>
        <constant>0.9</constant>
        <linear>0.01</linear>
        <quadratic>0.001</quadratic>
      </attenuation>
      <direction>-0.5 0.5 -1</direction>
    </light>

    <gravity>0 0 -9.8</gravity>
    <magnetic_field>6e-06 2.3e-05 -4.2e-05</magnetic_field>
    <atmosphere type='adiabatic'/>
    <physics name='default_physics' default='0' type='ode'>
      <max_step_size>0.001</max_step_size>
      <real_time_factor>1</real_time_factor>
      <real_time_update_rate>1000</real_time_update_rate>
    </physics>
    <scene>
      <ambient>0.4 0.4 0.4 1</ambient>
      <background>0.7 0.7 0.7 1</background>
      <shadows>1</shadows>
      <grid>true</grid>
    </scene>
    <spherical_coordinates>
      <surface_model>EARTH_WGS84</surface_model>
      <latitude_deg>0</latitude_deg>
      <longitude_deg>0</longitude_deg>
      <elevation>0</elevation>
      <heading_deg>0</heading_deg>
    </spherical_coordinates>

    <light name='user_point_light_0' type='point'>
      <pose frame=''>3 3 3 0 -0 0</pose>
      <diffuse>0.5 0.5 0.5 1</diffuse>
      <specular>0.1 0.1 0.1 1</specular>
      <attenuation>
        <range>20</range>
        <constant>0.5</constant>
        <linear>0.01</linear>
        <quadratic>0.001</quadratic>
      </attenuation>
      <cast_shadows>0</cast_shadows>
      <direction>0 0 -1</direction>
    </light>
    <light name='user_point_light_3' type='point'>
      <pose frame=''>-3 -3 3 0 -0 0</pose>
      <diffuse>0.5 0.5 0.5 1</diffuse>
      <specular>0.1 0.1 0.1 1</specular>
      <attenuation>
        <range>20</range>
        <constant>0.5</constant>
        <linear>0.01</linear>
        <quadratic>0.001</quadratic>
      </attenuation>
      <cast_shadows>0</cast_shadows>
      <direction>0 0 -1</direction>
    </light>
    <light name='user_point_light_2' type='point'>
      <pose frame=''>-3 3 3 0 -0 0</pose>
      <diffuse>0.5 0.5 0.5 1</diffuse>
      <specular>0.1 0.1 0.1 1</specular>
      <attenuation>
        <range>20</range>
        <constant>0.5</constant>
        <linear>0.01</linear>
        <quadratic>0.001</quadratic>
      </attenuation>
      <cast_shadows>0</cast_shadows>
      <direction>0 0 -1</direction>
    </light>
    <light name='user_point_light_1' type='point'>
      <pose frame=''>3 -3 3 0 -0 0</pose>
      <diffuse>0.5 0.5 0.5 1</diffuse>
      <specular>0.1 0.1 0.1 1</specular>
      <attenuation>
        <range>20</range>
        <constant>0.5</constant>
        <linear>0.01</linear>
        <quadratic>0.001</quadratic>
      </attenuation>
      <cast_shadows>0</cast_shadows>
      <direction>0 0 -1</direction>
    </light>

    <model name='ground_plane'>
	  <pose frame=''>0 0 -0.0005 0 -0 0</pose>
      <static>1</static>
      <link name='link'>
        <collision name='ground_plane_collision'>
          <geometry>
            <plane>
              <normal>0 0 1</normal>
              <size>20 20</size>
            </plane>
          </geometry>
          <surface>
            <contact>
              <collide_bitmask>65535</collide_bitmask>
              <ode/>
            </contact>
            <friction>
              <ode>
                <mu>100</mu>
                <mu2>50</mu2>
              </ode>
              <torsional>
                <ode/>
              </torsional>
            </friction>
            <bounce/>
          </surface>
          <max_contacts>10</max_contacts>
        </collision>
        <visual name='ground_plane_visual'>
          <cast_shadows>0</cast_shadows>
          <geometry>
            <plane>
              <normal>0 0 1</normal>
              <size>20 20</size>
            </plane>
          </geometry>
          <material>
            <script>
              <uri>file://media/materials/scripts/gazebo.material</uri>
              <name>Gazebo/FlatBlack</name>
            </script>
          </material>
        </visual>
        <self_collide>0</self_collide>
        <enable_wind>0</enable_wind>
        <kinematic>0</kinematic>
      </link>
    </model>

    <model name='ground_plane'>
    <pose frame=''>-0.842201 -0.84767 0 0 -0 0</pose>
    <link name='Wall_15'>
      <collision name='Wall_15_Collision'>
        <geometry>
          <box>
            <size>11.75 0.15 2.5</size>
          </box>
        </geometry>
        <pose frame=''>0 0 1.25 0 -0 0</pose>
      </collision>
      <visual name='Wall_15_Visual'>
        <pose frame=''>0 0 1.25 0 -0 0</pose>
        <geometry>
          <box>
            <size>11.75 0.15 2.5</size>
          </box>
        </geometry>
        <material>
          <script>
            <uri>file://media/materials/scripts/gazebo.material</uri>
            <name>Gazebo/Bricks</name>
          </script>
          <ambient>1 1 1 1</ambient>
        </material>
      </visual>
      <pose frame=''>-0.01081 4.925 0 0 -0 0</pose>
    </link>
    <link name='Wall_22'>
      <collision name='Wall_22_Collision'>
        <geometry>
          <box>
            <size>10 0.15 2.5</size>
          </box>
        </geometry>
        <pose frame=''>0 0 1.25 0 -0 0</pose>
      </collision>
      <visual name='Wall_22_Visual'>
        <pose frame=''>0 0 1.25 0 -0 0</pose>
        <geometry>
          <box>
            <size>10 0.15 2.5</size>
          </box>
        </geometry>
        <material>
          <script>
            <uri>file://media/materials/scripts/gazebo.material</uri>
            <name>Gazebo/Bricks</name>
          </script>
          <ambient>1 1 1 1</ambient>
        </material>
      </visual>
      <pose frame=''>5.78919 0 0 0 0 -1.5708</pose>
    </link>
    <link name='Wall_26'>
      <collision name='Wall_26_Collision'>
        <geometry>
          <box>
            <size>10 0.15 2.5</size>
          </box>
        </geometry>
        <pose frame=''>0 0 1.25 0 -0 0</pose>
      </collision>
      <visual name='Wall_26_Visual'>
        <pose frame=''>0 0 1.25 0 -0 0</pose>
        <geometry>
          <box>
            <size>10 0.15 2.5</size>
          </box>
        </geometry>
        <material>
          <script>
            <uri>file://media/materials/scripts/gazebo.material</uri>
            <name>Gazebo/Bricks</name>
          </script>
          <ambient>1 1 1 1</ambient>
        </material>
      </visual>
      <pose frame=''>-5.81081 0 0 0 0 -1.5708</pose>
    </link>
    <link name='Wall_27'>
      <collision name='Wall_27_Collision'>
        <geometry>
          <box>
            <size>11.75 0.15 2.5</size>
          </box>
        </geometry>
        <pose frame=''>0 0 1.25 0 -0 0</pose>
      </collision>
      <visual name='Wall_27_Visual'>
        <pose frame=''>0 0 1.25 0 -0 0</pose>
        <geometry>
          <box>
            <size>11.75 0.15 2.5</size>
          </box>
        </geometry>
        <material>
          <script>
            <uri>file://media/materials/scripts/gazebo.material</uri>
            <name>Gazebo/Bricks</name>
          </script>
          <ambient>1 1 1 1</ambient>
        </material>
      </visual>
      <pose frame=''>-0.01081 -4.925 0 0 -0 0</pose>
    </link>
    <link name='Wall_29'>
      <collision name='Wall_29_Collision'>
        <geometry>
          <box>
            <size>3.33116 0.15 2.5</size>
          </box>
        </geometry>
        <pose frame=''>0 0 1.25 0 -0 0</pose>
      </collision>
      <visual name='Wall_29_Visual'>
        <pose frame=''>0 0 1.25 0 -0 0</pose>
        <geometry>
          <box>
            <size>3.33116 0.15 2.5</size>
          </box>
        </geometry>
        <material>
          <script>
            <uri>file://media/materials/scripts/gazebo.material</uri>
            <name>Gazebo/Bricks</name>
          </script>
          <ambient>1 1 1 1</ambient>
        </material>
      </visual>
      <pose frame=''>-0.161691 3.31989 0 0 0 -1.5708</pose>
    </link>
    <link name='Wall_30'>
      <collision name='Wall_30_Collision'>
        <geometry>
          <box>
            <size>3 0.15 2.5</size>
          </box>
        </geometry>
        <pose frame=''>0 0 1.25 0 -0 0</pose>
      </collision>
      <visual name='Wall_30_Visual'>
        <pose frame=''>0 0 1.25 0 -0 0</pose>
        <geometry>
          <box>
            <size>3 0.15 2.5</size>
          </box>
        </geometry>
        <material>
          <script>
            <uri>file://media/materials/scripts/gazebo.material</uri>
            <name>Gazebo/Bricks</name>
          </script>
          <ambient>1 1 1 1</ambient>
        </material>
      </visual>
      <pose frame=''>-1.55979 1.72954 0 0 -0 3.14159</pose>
    </link>
    <link name='Wall_32'>
      <collision name='Wall_32_Collision'>
        <geometry>
          <box>
            <size>1.249 0.15 2.5</size>
          </box>
        </geometry>
        <pose frame=''>0 0 1.25 0 -0 0</pose>
      </collision>
      <visual name='Wall_32_Visual'>
        <pose frame=''>0 0 1.25 0 -0 0</pose>
        <geometry>
          <box>
            <size>1.249 0.15 2.5</size>
          </box>
        </geometry>
        <material>
          <script>
            <uri>file://media/materials/scripts/gazebo.material</uri>
            <name>Gazebo/Bricks</name>
          </script>
          <ambient>1 1 1 1</ambient>
        </material>
      </visual>
      <pose frame=''>-5.1543 -0.60533 0 0 -0 0</pose>
    </link>
    <link name='Wall_34'>
      <collision name='Wall_34_Collision'>
        <geometry>
          <box>
            <size>4.5 0.15 2.5</size>
          </box>
        </geometry>
        <pose frame=''>0 0 1.25 0 -0 0</pose>
      </collision>
      <visual name='Wall_34_Visual'>
        <pose frame=''>0 0 1.25 0 -0 0</pose>
        <geometry>
          <box>
            <size>4.5 0.15 2.5</size>
          </box>
        </geometry>
        <material>
          <script>
            <uri>file://media/materials/scripts/gazebo.material</uri>
            <name>Gazebo/Bricks</name>
          </script>
          <ambient>1 1 1 1</ambient>
        </material>
      </visual>
      <pose frame=''>-2.20633 -2.7075 0 0 -0 1.5708</pose>
    </link>
    <link name='Wall_35'>
      <collision name='Wall_35_Collision'>
        <geometry>
          <box>
            <size>2.25 0.15 2.5</size>
          </box>
        </geometry>
        <pose frame=''>0 0 1.25 0 -0 0</pose>
      </collision>
      <visual name='Wall_35_Visual'>
        <pose frame=''>0 0 1.25 0 -0 0</pose>
        <geometry>
          <box>
            <size>2.25 0.15 2.5</size>
          </box>
        </geometry>
        <material>
          <script>
            <uri>file://media/materials/scripts/gazebo.material</uri>
            <name>Gazebo/Bricks</name>
          </script>
          <ambient>1 1 1 1</ambient>
        </material>
      </visual>
      <pose frame=''>-1.15633 -0.532501 0 0 -0 0</pose>
    </link>
    <link name='Wall_37'>
      <collision name='Wall_37_Collision'>
        <geometry>
          <box>
            <size>3.75 0.15 2.5</size>
          </box>
        </geometry>
        <pose frame=''>0 0 1.25 0 -0 0</pose>
      </collision>
      <visual name='Wall_37_Visual'>
        <pose frame=''>0 0 1.25 0 -0 0</pose>
        <geometry>
          <box>
            <size>3.75 0.15 2.5</size>
          </box>
        </geometry>
        <material>
          <script>
            <uri>file://media/materials/scripts/gazebo.material</uri>
            <name>Gazebo/Bricks</name>
          </script>
          <ambient>1 1 1 1</ambient>
        </material>
      </visual>
      <pose frame=''>3.98391 -0.524189 0 0 -0 3.14159</pose>
    </link>
    <link name='Wall_39'>
      <collision name='Wall_39_Collision'>
        <geometry>
          <box>
            <size>3.75 0.15 2.5</size>
          </box>
        </geometry>
        <pose frame=''>0 0 1.25 0 -0 0</pose>
      </collision>
      <visual name='Wall_39_Visual'>
        <pose frame=''>0 0 1.25 0 -0 0</pose>
        <geometry>
          <box>
            <size>3.75 0.15 2.5</size>
          </box>
        </geometry>
        <material>
          <script>
            <uri>file://media/materials/scripts/gazebo.material</uri>
            <name>Gazebo/Bricks</name>
          </script>
          <ambient>1 1 1 1</ambient>
        </material>
      </visual>
      <pose frame=''>4.01081 -2.75715 0 0 -0 3.14159</pose>
    </link>
    <link name='Wall_41'>
      <collision name='Wall_41_Collision'>
        <geometry>
          <box>
            <size>1.75 0.15 2.5</size>
          </box>
        </geometry>
        <pose frame=''>0 0 1.25 0 -0 0</pose>
      </collision>
      <visual name='Wall_41_Visual'>
        <pose frame=''>0 0 1.25 0 -0 0</pose>
        <geometry>
          <box>
            <size>1.75 0.15 2.5</size>
          </box>
        </geometry>
        <material>
          <script>
            <uri>file://media/materials/scripts/gazebo.material</uri>
            <name>Gazebo/Bricks</name>
          </script>
          <ambient>1 1 1 1</ambient>
        </material>
      </visual>
      <pose frame=''>-3.06014 -3.53734 0 0 -0 3.14159</pose>
    </link>
    <link name='Wall_44'>
      <collision name='Wall_44_Collision'>
        <geometry>
          <box>
            <size>1.5 0.15 2.5</size>
          </box>
        </geometry>
        <pose frame=''>0 0 1.25 0 -0 0</pose>
      </collision>
      <visual name='Wall_44_Visual'>
        <pose frame=''>0 0 1.25 0 -0 0</pose>
        <geometry>
          <box>
            <size>1.5 0.15 2.5</size>
          </box>
        </geometry>
        <material>
          <script>
            <uri>file://media/materials/scripts/gazebo.material</uri>
            <name>Gazebo/Bricks</name>
          </script>
          <ambient>1 1 1 1</ambient>
        </material>
      </visual>
      <pose frame=''>-3.86014 -4.21234 0 0 0 -1.5708</pose>
    </link>
    <static>1</static>
  </model>
    <audio/>
    <wind/>
    <gui fullscreen='0'>
      <camera name='user_camera'>
        <pose frame=''>-2.5 2 10 3.14159 1.57079 3.14159</pose>
        <view_controller>orbit</view_controller>
        <projection_type>perspective</projection_type>
      </camera>
    </gui>
  </world>
</sdf>

